Piyayut Chitchumnong - How to make an animated population pyramid using R and echarts
…
df

#> # A tibble: 714 × 4
#>     year age_span female  male
#>    <dbl> <chr>     <dbl> <dbl>
#>  1  1980 0-4        7.03  7.6 
#>  2  1980 5-9        8.29  8.94
#>  3  1980 10-14      7.38  7.94
#>  4  1980 15-19      6.75  7.28
#>  5  1980 20-24      6.57  7.04
#>  6  1980 25-29      7.65  8.18
#>  7  1980 30-34      8.95  9.45
#>  8  1980 35-39      7.73  8.01
#>  9  1980 40-44      7.02  7.26
#> 10  1980 45-49      6.8   6.89
#> # … with 704 more rows
…
