Piyayut Chitchumnong - Grammar of Data Manipulation in R and python
…
# make sure that you have pandas pyarrow openpyxl 
# installed in your machine/environments
# !pip install pandas openpyxl pyarrow

import pandas as pd

3 Data: gapminder

One of the important step to conduct a data analytics or machine learning project is to understand the data.

Data used in this tutorial are from gapminder R package inspired by famous Hans Rosling ted’s talk. We use two tables which are

gapminder contain a data of countries from 1952 - 2007 with 3 variables including population (pop), life expectancy (LifeExp), and gdp per capita(gdpPercap).

#> # A tibble: 1,704 × 6
#>    country     continent  year lifeExp      pop gdpPercap
#>    <fct>       <fct>     <int>   <dbl>    <int>     <dbl>
#>  1 Afghanistan Asia       1952    28.8  8425333      779.
#>  2 Afghanistan Asia       1957    30.3  9240934      821.
#>  3 Afghanistan Asia       1962    32.0 10267083      853.
#>  4 Afghanistan Asia       1967    34.0 11537966      836.
#>  5 Afghanistan Asia       1972    36.1 13079460      740.
#>  6 Afghanistan Asia       1977    38.4 14880372      786.
#>  7 Afghanistan Asia       1982    39.9 12881816      978.
#>  8 Afghanistan Asia       1987    40.8 13867957      852.
#>  9 Afghanistan Asia       1992    41.7 16317921      649.
#> 10 Afghanistan Asia       1997    41.8 22227415      635.
#> # … with 1,694 more rows

country_codes contains country names and associated ISO 3166-1 country codes (alpha and numeric) will be used for join.

#> # A tibble: 187 × 3
#>    country     iso_alpha iso_num
#>    <chr>       <chr>       <int>
#>  1 Afghanistan AFG             4
#>  2 Albania     ALB             8
#>  3 Algeria     DZA            12
#>  4 Angola      AGO            24
#>  5 Argentina   ARG            32
#>  6 Armenia     ARM            51
#>  7 Aruba       ABW           533
#>  8 Australia   AUS            36
#>  9 Austria     AUT            40
#> 10 Azerbaijan  AZE            31
#> # … with 177 more rows
…
4.1 csv

CSV is a text file that each columns are seperated by commas stored in .csv file extension. Aside from csv, there are similar text file that store spreadsheet data but used different seperator or fixed width to determine column by position. gapminder.csv file can be downloaded here.

R
python

We use function read_csv from readr package.

gapminder <- read_csv("gapminder.csv", show_col_types = FALSE)
# you can use file path in your local machine or url path.
gapminder

#> # A tibble: 1,704 × 6
#>    country     continent  year lifeExp      pop gdpPercap
#>    <chr>       <chr>     <dbl>   <dbl>    <dbl>     <dbl>
#>  1 Afghanistan Asia       1952    28.8  8425333      779.
#>  2 Afghanistan Asia       1957    30.3  9240934      821.
#>  3 Afghanistan Asia       1962    32.0 10267083      853.
#>  4 Afghanistan Asia       1967    34.0 11537966      836.
#>  5 Afghanistan Asia       1972    36.1 13079460      740.
#>  6 Afghanistan Asia       1977    38.4 14880372      786.
#>  7 Afghanistan Asia       1982    39.9 12881816      978.
#>  8 Afghanistan Asia       1987    40.8 13867957      852.
#>  9 Afghanistan Asia       1992    41.7 16317921      649.
#> 10 Afghanistan Asia       1997    41.8 22227415      635.
#> # … with 1,694 more rows
…
Tip

Unstructured excel files are difficult to work with using programming. Excel are still widely used by many organizations, so at leaset, we should convince users to make a proper spreadsheet for example follow Broman and Woo’ guideline.

R
python

We use function read_excel from readxl package. As an excel file can have multiple worksheets, we can read one sheet at a time and we can specify sheet to import using sheet argument where it could be index or sheet name.

read fist sheet.

gapminder <- read_excel("gapminder.xlsx")
gapminder

#> # A tibble: 1,704 × 6
#>    country     continent  year lifeExp      pop gdpPercap
#>    <chr>       <chr>     <dbl>   <dbl>    <dbl>     <dbl>
#>  1 Afghanistan Asia       1952    28.8  8425333      779.
#>  2 Afghanistan Asia       1957    30.3  9240934      821.
#>  3 Afghanistan Asia       1962    32.0 10267083      853.
#>  4 Afghanistan Asia       1967    34.0 11537966      836.
#>  5 Afghanistan Asia       1972    36.1 13079460      740.
#>  6 Afghanistan Asia       1977    38.4 14880372      786.
#>  7 Afghanistan Asia       1982    39.9 12881816      978.
#>  8 Afghanistan Asia       1987    40.8 13867957      852.
#>  9 Afghanistan Asia       1992    41.7 16317921      649.
#> 10 Afghanistan Asia       1997    41.8 22227415      635.
#> # … with 1,694 more rows

read second sheet.

country_codes <- read_excel("gapminder.xlsx", sheet = 2)
country_codes

#> # A tibble: 187 × 3
#>    country     iso_alpha iso_num
#>    <chr>       <chr>       <dbl>
#>  1 Afghanistan AFG             4
#>  2 Albania     ALB             8
#>  3 Algeria     DZA            12
#>  4 Angola      AGO            24
#>  5 Argentina   ARG            32
#>  6 Armenia     ARM            51
#>  7 Aruba       ABW           533
#>  8 Australia   AUS            36
#>  9 Austria     AUT            40
#> 10 Azerbaijan  AZE            31
#> # … with 177 more rows
…
Index in python starts with 0.

4.3 parquet

Parquet is an open file format that is great for speed and storage. Some organizeations have changed the way they sharing their data files to parquet instead of csv. gapminder.parquet file can be downloaded here.

R
python

We use function read_parquet from arrow package.

gapminder <- read_parquet("gapminder.parquet")
gapminder

#> # A tibble: 1,704 × 6
#>    country     continent  year lifeExp      pop gdpPercap
#>    <fct>       <fct>     <int>   <dbl>    <int>     <dbl>
#>  1 Afghanistan Asia       1952    28.8  8425333      779.
#>  2 Afghanistan Asia       1957    30.3  9240934      821.
#>  3 Afghanistan Asia       1962    32.0 10267083      853.
#>  4 Afghanistan Asia       1967    34.0 11537966      836.
#>  5 Afghanistan Asia       1972    36.1 13079460      740.
#>  6 Afghanistan Asia       1977    38.4 14880372      786.
#>  7 Afghanistan Asia       1982    39.9 12881816      978.
#>  8 Afghanistan Asia       1987    40.8 13867957      852.
#>  9 Afghanistan Asia       1992    41.7 16317921      649.
#> 10 Afghanistan Asia       1997    41.8 22227415      635.
#> # … with 1,694 more rows
…
5 Selecting variables

In real data wrangling work, we often get a table that contains too many variables. It is helpful to select only needed variables for further uses. In this tutorial, we select three variables inclduing country, year and pop.

R
python

We use select from dplyr package.

gapminder |> select(country, year, pop)

#> # A tibble: 1,704 × 3
#>    country      year      pop
#>    <fct>       <int>    <int>
#>  1 Afghanistan  1952  8425333
#>  2 Afghanistan  1957  9240934
#>  3 Afghanistan  1962 10267083
#>  4 Afghanistan  1967 11537966
#>  5 Afghanistan  1972 13079460
#>  6 Afghanistan  1977 14880372
#>  7 Afghanistan  1982 12881816
#>  8 Afghanistan  1987 13867957
#>  9 Afghanistan  1992 16317921
#> 10 Afghanistan  1997 22227415
#> # … with 1,694 more rows
…
pop_m is population in million.

gdp_m is total GDP in million USD where gdp is computed from gdpPercap multiply by pop.

R
python

We use mutate from dplyr package. It can use to make multiple variables in single function call.

gapminder |> mutate(
  pop_m = pop / 1e6,
  gdp_m = gdpPercap*pop/1e6
  )

#> # A tibble: 1,704 × 8
#>    country     continent  year lifeExp      pop gdpPercap pop_m  gdp_m
#>    <fct>       <fct>     <int>   <dbl>    <int>     <dbl> <dbl>  <dbl>
#>  1 Afghanistan Asia       1952    28.8  8425333      779.  8.43  6567.
#>  2 Afghanistan Asia       1957    30.3  9240934      821.  9.24  7585.
#>  3 Afghanistan Asia       1962    32.0 10267083      853. 10.3   8759.
#>  4 Afghanistan Asia       1967    34.0 11537966      836. 11.5   9648.
#>  5 Afghanistan Asia       1972    36.1 13079460      740. 13.1   9679.
#>  6 Afghanistan Asia       1977    38.4 14880372      786. 14.9  11698.
#>  7 Afghanistan Asia       1982    39.9 12881816      978. 12.9  12599.
#>  8 Afghanistan Asia       1987    40.8 13867957      852. 13.9  11821.
#>  9 Afghanistan Asia       1992    41.7 16317921      649. 16.3  10596.
#> 10 Afghanistan Asia       1997    41.8 22227415      635. 22.2  14122.
#> # … with 1,694 more rows
…
Often, we have to sort or rearrange rows by values of particular columns to help us better understanding of data. We can sort from lower to larger (ascending) or the opposite (descending). Also multiple columns can be sorted. In this tutorial, we illustrate two cases

sort gapminder by continent and country ascending.

sort gapminder by year descending and continent ascending.

R
python

We use arrange from dplyr package. Default mode of sorting is ascending, if we want to sort descending, use desc(variable) syntax.

gapminder |> arrange(continent, country)

#> # A tibble: 1,704 × 6
#>    country continent  year lifeExp      pop gdpPercap
#>    <fct>   <fct>     <int>   <dbl>    <int>     <dbl>
#>  1 Algeria Africa     1952    43.1  9279525     2449.
#>  2 Algeria Africa     1957    45.7 10270856     3014.
#>  3 Algeria Africa     1962    48.3 11000948     2551.
#>  4 Algeria Africa     1967    51.4 12760499     3247.
#>  5 Algeria Africa     1972    54.5 14760787     4183.
#>  6 Algeria Africa     1977    58.0 17152804     4910.
#>  7 Algeria Africa     1982    61.4 20033753     5745.
#>  8 Algeria Africa     1987    65.8 23254956     5681.
#>  9 Algeria Africa     1992    67.7 26298373     5023.
#> 10 Algeria Africa     1997    69.2 29072015     4797.
#> # … with 1,694 more rows

gapminder |> arrange(desc(year), continent)

#> # A tibble: 1,704 × 6
#>    country                  continent  year lifeExp      pop gdpPercap
#>    <fct>                    <fct>     <int>   <dbl>    <int>     <dbl>
#>  1 Algeria                  Africa     2007    72.3 33333216     6223.
#>  2 Angola                   Africa     2007    42.7 12420476     4797.
#>  3 Benin                    Africa     2007    56.7  8078314     1441.
#>  4 Botswana                 Africa     2007    50.7  1639131    12570.
#>  5 Burkina Faso             Africa     2007    52.3 14326203     1217.
#>  6 Burundi                  Africa     2007    49.6  8390505      430.
#>  7 Cameroon                 Africa     2007    50.4 17696293     2042.
#>  8 Central African Republic Africa     2007    44.7  4369038      706.
#>  9 Chad                     Africa     2007    50.7 10238807     1704.
#> 10 Comoros                  Africa     2007    65.2   710960      986.
#> # … with 1,694 more rows
…
We want to find population total and population mean (in millions) of all countries and from 1952 - 2007.

R
python

We use group_by from dplyr package before use summarize function. The result is grouped dataframe. I normally ungroup it to normal dataframe.

gapminder |>
  group_by(continent, year) |>
  summarize(
    pop_min_m = min(pop)/1e6,
    pop_max_m = max(pop)/1e6
  ) |> ungroup()

#> # A tibble: 60 × 4
#>    continent  year pop_min_m pop_max_m
#>    <fct>     <int>     <dbl>     <dbl>
#>  1 Africa     1952    0.0600      33.1
#>  2 Africa     1957    0.0613      37.2
#>  3 Africa     1962    0.0653      41.9
#>  4 Africa     1967    0.0708      47.3
#>  5 Africa     1972    0.0766      53.7
#>  6 Africa     1977    0.0868      62.2
#>  7 Africa     1982    0.0986      73.0
#>  8 Africa     1987    0.111       81.6
#>  9 Africa     1992    0.126       93.4
#> 10 Africa     1997    0.146      106. 
#> # … with 50 more rows
…
10.1 Pivot wider

Convert from long format to wide format. In this tutorial, we want to make a report of each country of life extectancy by years where we want each year to be a column. We can achieve this by pivot gapminder to wide format.

R
python

We use pivot_wider from tidyr package.

gapminder |> pivot_wider(
  id_cols = c("continent", "country"), 
  names_from = "year",
  values_from = "lifeExp")

#> # A tibble: 142 × 14
#>    continent country     `1952` `1957` `1962` `1967` `1972` `1977` `1982` `1987`
#>    <fct>     <fct>        <dbl>  <dbl>  <dbl>  <dbl>  <dbl>  <dbl>  <dbl>  <dbl>
#>  1 Asia      Afghanistan   28.8   30.3   32.0   34.0   36.1   38.4   39.9   40.8
#>  2 Europe    Albania       55.2   59.3   64.8   66.2   67.7   68.9   70.4   72  
#>  3 Africa    Algeria       43.1   45.7   48.3   51.4   54.5   58.0   61.4   65.8
#>  4 Africa    Angola        30.0   32.0   34     36.0   37.9   39.5   39.9   39.9
#>  5 Americas  Argentina     62.5   64.4   65.1   65.6   67.1   68.5   69.9   70.8
#>  6 Oceania   Australia     69.1   70.3   70.9   71.1   71.9   73.5   74.7   76.3
#>  7 Europe    Austria       66.8   67.5   69.5   70.1   70.6   72.2   73.2   74.9
#>  8 Asia      Bahrain       50.9   53.8   56.9   59.9   63.3   65.6   69.1   70.8
#>  9 Asia      Bangladesh    37.5   39.3   41.2   43.5   45.3   46.9   50.0   52.8
#> 10 Europe    Belgium       68     69.2   70.2   70.9   71.4   72.8   73.9   75.4
#> # … with 132 more rows, and 4 more variables: `1992` <dbl>, `1997` <dbl>,
#> #   `2002` <dbl>, `2007` <dbl>
…
10.2 Pivot longer

Convert from wide format to long format. In this tutorial, we want to normalize gapminder table by moving measurment variables including lifeExp pop and gdpPercap columns into longer format where there is a column to store the variable name and a column store their value. We can achieve this by pivot gapminder to long format.

R
python

We use pivot_longer from tidyr package.

gapminder |> pivot_longer(
  cols = c("lifeExp", "pop", "gdpPercap"), 
  names_to  = "variable",
  values_to = "value")

#> # A tibble: 5,112 × 5
#>    country     continent  year variable       value
#>    <fct>       <fct>     <int> <chr>          <dbl>
#>  1 Afghanistan Asia       1952 lifeExp         28.8
#>  2 Afghanistan Asia       1952 pop        8425333  
#>  3 Afghanistan Asia       1952 gdpPercap      779. 
#>  4 Afghanistan Asia       1957 lifeExp         30.3
#>  5 Afghanistan Asia       1957 pop        9240934  
#>  6 Afghanistan Asia       1957 gdpPercap      821. 
#>  7 Afghanistan Asia       1962 lifeExp         32.0
#>  8 Afghanistan Asia       1962 pop       10267083  
#>  9 Afghanistan Asia       1962 gdpPercap      853. 
#> 10 Afghanistan Asia       1967 lifeExp         34.0
#> # … with 5,102 more rows
…
11 Join tables

We join tables together to enrich data i.e. adding new variables from other table or adding metadata from reference tables. In this tutorial, we add country codes to gapminder dataset.

Like SQL-join, there are many types of join. In this tutorial, we illustrate left-join where the left table rows are preserved and add only matched data from right table.

R
python

We use pivot_wider from tidyr package.

gapminder |> left_join(country_codes, by = c("country" = "country"))

#> # A tibble: 1,704 × 8
#>    country     continent  year lifeExp      pop gdpPercap iso_alpha iso_num
#>    <chr>       <fct>     <int>   <dbl>    <int>     <dbl> <chr>       <dbl>
#>  1 Afghanistan Asia       1952    28.8  8425333      779. AFG             4
#>  2 Afghanistan Asia       1957    30.3  9240934      821. AFG             4
#>  3 Afghanistan Asia       1962    32.0 10267083      853. AFG             4
#>  4 Afghanistan Asia       1967    34.0 11537966      836. AFG             4
#>  5 Afghanistan Asia       1972    36.1 13079460      740. AFG             4
#>  6 Afghanistan Asia       1977    38.4 14880372      786. AFG             4
#>  7 Afghanistan Asia       1982    39.9 12881816      978. AFG             4
#>  8 Afghanistan Asia       1987    40.8 13867957      852. AFG             4
#>  9 Afghanistan Asia       1992    41.7 16317921      649. AFG             4
#> 10 Afghanistan Asia       1997    41.8 22227415      635. AFG             4
#> # … with 1,694 more rows
…
